created by mataras

uptime:
 13:13:45 up 17 min,  2 users,  load average: 0.00, 0.03, 0.07
 13:36:34 up 39 min,  2 users,  load average: 0.03, 0.02, 0.00
 13:48:19 up 51 min,  2 users,  load average: 0.00, 0.00, 0.00
